(;GM[1]FF[4]AP[Drago:4.23]CA[UTF-8]SZ[9]AB[ab][bb][cb][db][eb][fb][fa]AW[ac][bc][cc][dc][ec][fc][gc][gb][ga][ba][ca][da]C[It is your turn. If you want to say the three white stones are dead, you will have to capture them to prove it!]
(;B[ea]
;W[aa]C[Ouch! Turns out however you try to put these stones into atari you will always get captured first. Dang it! See puzzle 2
<br><a class="puzzleNext" onclick="loadTsumego('12-2','pzl2',tsumego)">Next puzzle</a>])
(;B[aa]
;W[ea]C[Ouch! Turns out however you try to put these stones into atari you will always get captured first. Dang it! See puzzle 2
<br><a class="puzzleNext" onclick="loadTsumego('12-2','pzl2',tsumego)">Next puzzle</a>]))
