(;GM[1]FF[4]AP[Drago:4.23]CA[UTF-8]SZ[9]AB[ce][bd]AW[cd][dd][be]CR[be]C[Cutting on the 2nd line can be tricky though. White just cut you in the situation below. Keep your stones connected somehow.]
(;B[bf];W[ae]
(;B[ad];W[bc]
;B[af]TE[1]C[Exactly. Stones so close to the edge have nowhere to run to gain 
more liberties.
<br><a class="puzzleNext" onclick="loadTsumego('7-3','pzl3',tsumego)">Next puzzle</a>])
(;B[af];W[bc]
(;B[ad]TE[1]C[Exactly. Stones so close to the edge have nowhere to run to gain 
more liberties.
<br><a class="puzzleNext" onclick="loadTsumego('7-3','pzl3',tsumego)">Next puzzle</a>])
(;B[ac];W[ad]
;B[bd]TE[1]C[Very clever! Snapback.
<br><a class="puzzleNext" onclick="loadTsumego('7-3','pzl3',tsumego)">Next puzzle</a>]))
(;B[cf];W[bc]
(;B[af];W[ad])
(;B[ad];W[ac])))
(;B[cf];W[bc]
(;B[bf];W[ad])
(;B[ad];W[ae];B[bf];W[ac]))
(;B[bc]
;W[cf]C[This black stone will be captured in a ladder. Try another way]))
