(;GM[1]FF[4]AP[Drago:4.23]CA[UTF-8]SZ[9]AW[fd][fe][ce][gc][gb][ga][hd][id][ib]AB[ed][fc][gd][ge][gf][fb]C[Capture White's cutting stones.]
(;B[ff];W[ee]
(;B[de];W[ef];B[eg];W[df]
(;B[cf]
;W[dd]C[Does not work like this.])
(;B[dg]
;W[cf]C[Does not work like this.]))
(;B[ef];W[de]))
(;B[ef];W[ee];B[de];W[dd]
;B[ff]TE[1]C[A very nice net!])
(;B[ee];W[ff];B[fg];W[ef];B[df]
;W[eg]MA[eg][ef][ff][fe][fd]C[A ladder works if you set it up correctly!]TE[1]))
